{
  "coverage": "94.44%",
  "expectCount": 54,
  "actualCount": 51,
  "files": {
    "src/core/Core.js": {
      "expectCount": 13,
      "actualCount": 12,
      "undocumentLines": [
        42
      ]
    },
    "src/core/DataSource.js": {
      "expectCount": 8,
      "actualCount": 8,
      "undocumentLines": []
    },
    "src/core/Dataset.js": {
      "expectCount": 7,
      "actualCount": 7,
      "undocumentLines": []
    },
    "src/core/Environment.js": {
      "expectCount": 12,
      "actualCount": 11,
      "undocumentLines": [
        260
      ]
    },
    "src/tool/QueryString.js": {
      "expectCount": 3,
      "actualCount": 3,
      "undocumentLines": []
    },
    "src/core/Timeline.js": {
      "expectCount": 7,
      "actualCount": 7,
      "undocumentLines": []
    },
    "src/debug/TimelineDebug.js": {
      "expectCount": 4,
      "actualCount": 3,
      "undocumentLines": [
        262
      ]
    }
  }
}